docroot/waveform.vcd
$date 2021-12-02 11:40:10 $end
$version pig2vcd V1 $end
$timescale 1 us $end
$scope module top $end
$var wire 1 A 0 $end
$var wire 1 B 1 $end
$var wire 1 C 2 $end
$var wire 1 D 3 $end
$var wire 1 E 4 $end
$var wire 1 F 5 $end
$var wire 1 G 6 $end
$var wire 1 H 7 $end
$var wire 1 I 8 $end
$var wire 1 J 9 $end
$var wire 1 K 10 $end
$var wire 1 L 11 $end
$var wire 1 M 12 $end
$var wire 1 N 13 $end
$var wire 1 O 14 $end
$var wire 1 P 15 $end
$var wire 1 Q 16 $end
$var wire 1 R 17 $end
$var wire 1 S 18 $end
$var wire 1 T 19 $end
$var wire 1 U 20 $end
$var wire 1 V 21 $end
$var wire 1 W 22 $end
$var wire 1 X 23 $end
$var wire 1 Y 24 $end
$var wire 1 Z 25 $end
$var wire 1 a 26 $end
$var wire 1 b 27 $end
$var wire 1 c 28 $end
$var wire 1 d 29 $end
$var wire 1 e 30 $end
$var wire 1 f 31 $end
$upscope $end
$enddefinitions $end
#5000
1O
1f
#10000
0f
#15000
1f
#20000
0f
#25000
1f
#30000
0f
#35000
1f
#40000
0f
#45000
1f
#50000
0f
#55000
1f
#60000
0f
#65000
1f
#70000
0f
#75000
1f
#80000
0f
#85001
1f
#90000
0f
#95000
1f
#100000
0f
#105000
1f
#110000
0f
#115000
1f
#120000
0f
#125000
1f
#130000
0f
#135000
1f
#140001
0f
#145000
1f
#150001
0f
#155001
1f
#160001
0f
#165001
1f
#170001
0f
#175001
1f
#180001
0f
#185001
1f
#190001
0f
#195001
1f
#200001
0f
#205001
1f
#210001
0f
#215001
1f
#220001
0f
#225001
1f
#230001
0f
#235001
1f
#240001
0f
#245001
1f
#250001
0f
#255001
1f
#260001
0f
#265001
1f
#270001
0f
#275001
1f
#280001
0f
#285001
1f
#290001
0f
#295001
1f
#300001
0f
#305001
1f
#310001
0f
#315001
1f
#320001
0f
#325001
1f
#330001
0f
#335001
1f
#340001
0f
#345001
1f
#350001
0f
#355001
1f
#360001
0f
#365001
1f
#370001
0f
#375001
1f
#380001
0f
#385001
1f
#390001
0f
#395001
1f
#400001
0f
#405001
1f
#410001
0f
#415001
1f
#420001
0f
#425001
1f
#430001
0f
#435001
1f
#440001
0f
#445001
1f
#450001
0f
#455001
1f
#460001
0f
#465002
1f
#470001
0f
#475002
1f
#480002
0f
#485002
1f
#490002
0f
#495002
1f
#500002
0f
#505002
1f
#510002
0f
#515002
1f
#520002
0f
#525002
1f
#530002
0f
#535002
1f
#540002
0f
#545002
1f
#550002
0f
#555002
1f
#560002
0f
#565002
1f
#570002
0f
#575002
1f
#580002
0f
#585002
1f
#590002
0f
#595002
1f
#600002
0f
#605002
1f
#610002
0f
#615002
1f
#620002
0f
#625002
1f
#630002
0f
#635002
1f
#640002
0f
#645002
1f
#650002
0f
#655002
1f
#660002
0f
#665002
1f
#670002
0f
#675002
1f
#680002
0f
#685002
1f
#690002
0f
#695002
1f
#700002
0f
#705002
1f
#710002
0f
#715002
1f
#720002
0f
#725002
1f
#730002
0f
#735002
1f
#740002
0f
#745002
1f
#750002
0f
#755002
1f
#760002
0f
#765002
1f
#770002
0f
#775002
1f
#780002
0f
#785002
1f
#790002
0f
#795002
1f
#800002
0f
#805002
1f
#810002
0f
#815002
1f
#820002
0f
#825002
1f
#830002
0f
#835002
1f
#840002
0f
#845002
1f
#850003
0f
#855002
1f
#860002
0f
#865002
1f
#870002
0f
#875003
1f
#880003
0f
#885003
1f
#890003
0f
#895003
1f
#900003
0f
#905003
1f
#910003
0f
#915003
1f
#920003
0f
#925003
1f
#930003
0f
#935003
1f
#940003
0f
#945003
1f
#950003
0f
#955003
1f
#960003
0f
#965003
1f
#970003
0f
#975003
1f
#980003
0f
#985003
1f
#990003
0f
#995003
1f
#1000003
0f
#1005003
1f
#1010003
0f
#1015003
1f
#1020003
0f
#1025003
1f
#1030003
0f
#1035003
1f
#1040003
0f
#1045003
1f
#1050003
0f
#1055003
1f
#1060003
0f
#1065003
1f
#1070003
0f
#1075003
1f
#1080003
0f
#1085003
1f
#1090003
0f
#1095003
1f
#1100003
0f
#1105003
1f
#1110003
0f
#1115003
1f
#1120003
0f
#1125003
1f
#1130003
0f
#1135003
1f
#1140003
0f
#1145003
1f
#1150003
0f
#1155003
1f
#1160003
0f
#1165003
1f
#1170003
0f
#1175003
1f
#1180003
0f
#1185003
1f
#1190003
0f
#1195003
1f
#1200003
0f
#1205003
1f
#1210003
0f
#1215003
1f
#1220003
0f
#1225003
1f
#1230003
0f
#1235003
1f
#1240003
0f
#1245003
1f
#1250003
0f
#1255003
1f
#1260003
0f
#1265004
1f
#1270003
0f
#1275004
1f
#1280004
0f
#1285004
1f
#1290004
0f
#1295004
1f
#1300004
0f
#1305004
1f
#1310004
0f
#1315004
1f
#1320004
0f
#1325004
1f
#1330004
0f
#1335004
1f
#1340004
0f
#1345004
1f
#1350004
0f
#1355004
1f
#1360004
0f
#1365004
1f
#1370004
0f
#1375004
1f
#1380004
0f
#1385004
1f
#1390004
0f
#1395004
1f
#1400004
0f
#1405004
1f
#1410004
0f
#1415004
1f
#1420004
0f
#1425004
1f
#1430004
0f
#1435004
1f
#1440004
0f
#1445004
1f
#1450004
0f
#1455004
1f
#1460004
0f
#1465004
1f
#1470004
0f
#1475004
1f
#1480004
0f
#1485004
1f
#1490004
0f
#1495004
1f
#1500004
0f
#1505004
1f
#1510004
0f
#1515004
1f
#1520004
0f
#1525004
1f
#1530004
0f
#1535004
1f
#1540004
0f
#1545004
1f
#1550004
0f
#1555004
1f
#1560004
0f
#1565004
1f
#1570004
0f
#1575004
1f
#1580004
0f
#1585004
1f
#1590004
0f
#1595004
1f
#1600004
0f
#1605004
1f
#1610004
0f
#1615004
1f
#1620004
0f
#1625004
1f
#1630004
0f
#1635004
1f
#1640004
0f
#1645004
1f
#1650004
0f
#1655005
1f
#1660004
0f
#1665005
1f
#1670004
0f
#1675005
1f
#1680005
0f
#1685005
1f
#1690005
0f
#1695005
1f
#1700005
0f
#1705005
1f
#1710005
0f
#1715005
1f
#1720005
0f
#1725005
1f
#1730005
0f
#1735005
1f
#1740005
0f
#1745005
1f
#1750005
0f
#1755005
1f
#1760005
0f
#1765005
1f
#1770005
0f
#1775005
1f
#1780005
0f
#1785005
1f
#1790005
0f
#1795005
1f
#1800005
0f
#1805005
1f
#1810005
0f
#1815005
1f
#1820005
0f
#1825005
1f
#1830005
0f
#1835005
1f
#1840005
0f
#1845005
1f
#1850005
0f
#1855005
1f
#1860005
0f
#1865005
1f
#1870005
0f
#1875005
1f
#1880005
0f
#1885005
1f
#1890005
0f
#1895005
1f
#1900005
0f
#1905005
1f
#1910005
0f
#1915005
1f
#1920005
0f
#1925005
1f
#1930005
0f
#1935005
1f
#1940005
0f
#1945005
1f
#1950005
0f
#1955005
1f
#1960005
0f
#1965005
1f
#1970005
0f
#1975005
1f
#1980005
0f
#1985005
1f
#1990005
0f
#1995005
1f
#2000005
0f
#2005005
1f
#2010005
0f
#2015005
1f
#2020005
0f
#2025005
1f
#2030005
0f
#2035005
1f
#2040005
0f
#2045006
1f
#2050005
0f
#2055005
1f
#2060005
0f
#2065006
1f
#2070006
0f
#2075006
1f
#2080006
0f
#2085006
1f
#2090006
0f
#2095006
1f
#2100006
0f
#2105006
1f
#2110006
0f
#2115006
1f
#2120006
0f
#2125006
1f
#2130006
0f
#2135006
1f
#2140006
0f
#2145006
1f
#2150006
0f
#2155006
1f
#2160006
0f
#2165006
1f
#2170006
0f
#2175006
1f
#2180006
0f
#2185006
1f
#2190006
0f
#2195006
1f
#2200006
0f
#2205006
1f
#2210006
0f
#2215006
1f
#2220006
0f
#2225006
1f
#2230006
0f
#2235006
1f
#2240006
0f
#2245006
1f
#2250006
0f
#2255006
1f
#2260006
0f
#2265006
1f
#2270006
0f
#2275006
1f
#2280006
0f
#2285006
1f
#2290006
0f
#2295006
1f
#2300006
0f
#2305006
1f
#2310006
0f
#2315006
1f
#2320006
0f
#2325006
1f
#2330006
0f
#2335006
1f
#2340006
0f
#2345006
1f
#2350006
0f
#2355006
1f
#2360006
0f
#2365006
1f
#2370006
0f
#2375006
1f
#2380006
0f
#2385006
1f
#2390006
0f
#2395006
1f
#2400006
0f
#2405006
1f
#2410006
0f
#2415006
1f
#2420007
0f
#2425006
1f
#2430006
0f
#2435006
1f
#2440006
0f
#2445006
1f
#2450006
0f
#2455006
1f
#2460007
0f
#2465007
1f
#2470007
0f
#2475007
1f
#2480007
0f
#2485007
1f
#2490007
0f
#2495007
1f
#2500007
0f
#2505007
1f
#2510007
0f
#2515007
1f
#2520007
0f
#2525007
1f
#2530007
0f
#2535007
1f
#2540007
0f
#2545007
1f
#2550007
0f
#2555007
1f
#2560007
0f
#2565007
1f
#2570007
0f
#2575007
1f
#2580007
0f
#2585007
1f
#2590007
0f
#2595007
1f
#2600007
0f
#2605007
1f
#2610007
0f
#2615007
1f
#2620007
0f
#2625007
1f
#2630007
0f
#2635007
1f
#2640007
0f
#2645007
1f
#2650007
0f
#2655007
1f
#2660007
0f
#2665007
1f
#2670007
0f
#2675007
1f
#2680007
0f
#2685007
1f
#2690007
0f
#2695007
1f
#2700007
0f
#2705007
1f
#2710007
0f
#2715007
1f
#2720007
0f
#2725007
1f
#2730007
0f
#2735007
1f
#2740007
0f
#2745007
1f
#2750007
0f
#2755007
1f
#2760007
0f
#2765007
1f
#2770007
0f
#2775007
1f
#2780007
0f
#2785007
1f
#2790007
0f
#2795007
1f
#2800007
0f
#2805007
1f
#2810007
0f
#2815007
1f
#2820007
0f
#2825007
1f
#2830007
0f
#2835008
1f
#2840007
0f
#2845007
1f
#2850008
0f
#2855007
1f
#2860008
0f
#2865008
1f
#2870008
0f
#2875008
1f
#2880008
0f
#2885008
1f
#2890008
0f
#2895008
1f
#2900008
0f
#2905008
1f
#2910008
0f
#2915008
1f
#2920008
0f
#2925008
1f
#2930008
0f
#2935008
1f
#2940008
0f
#2945008
1f
#2950008
0f
#2955008
1f
#2960008
0f
#2965008
1f
#2970008
0f
#2975008
1f
#2980008
0f
#2985008
1f
#2990008
0f
#2995008
1f
#3000008
0f
#3005008
1f
#3010008
0f
#3015008
1f
#3020008
0f
#3025008
1f
#3030008
0f
#3035008
1f
#3040008
0f
#3045008
1f
#3050008
0f
#3055008
1f
#3060008
0f
#3065008
1f
#3070008
0f
#3075008
1f
#3080008
0f
#3085008
1f
#3090008
0f
#3095008
1f
#3100008
0f
#3105008
1f
#3110008
0f
#3115008
1f
#3120008
0f
#3125008
1f
#3130008
0f
#3135008
1f
#3140008
0f
#3145008
1f
#3150008
0f
#3155008
1f
#3160008
0f
#3165008
1f
#3170008
0f
#3175008
1f
#3180008
0f
#3185008
1f
#3190008
0f
#3195008
1f
#3200008
0f
#3205008
1f
#3210008
0f
#3215008
1f
#3220008
0f
#3225009
1f
#3230008
0f
#3235008
1f
#3240008
0f
#3245008
1f
#3250009
0f
#3255009
1f
#3260009
0f
#3265009
1f
#3270009
0f
#3275009
1f
#3280009
0f
#3285009
1f
#3290009
0f
#3295009
1f
#3300009
0f
#3305009
1f
#3310009
0f
#3315009
1f
#3320009
0f
#3325009
1f
#3330009
0f
#3335009
1f
#3340009
0f
#3345009
1f
#3350009
0f
#3355009
1f
#3360009
0f
#3365009
1f
#3370009
0f
#3375009
1f
#3380009
0f
#3385009
1f
#3390009
0f
#3395009
1f
#3400009
0f
#3405009
1f
#3410009
0f
#3415009
1f
#3420009
0f
#3425009
1f
#3430009
0f
#3435009
1f
#3440009
0f
#3445009
1f
#3450009
0f
#3455009
1f
#3460009
0f
#3465009
1f
#3470009
0f
#3475009
1f
#3480009
0f
#3485009
1f
#3490009
0f
#3495009
1f
#3500009
0f
#3505009
1f
#3510009
0f
#3515009
1f
#3520009
0f
#3525009
1f
#3530009
0f
#3535009
1f
#3540009
0f
#3545009
1f
#3550009
0f
#3555009
1f
#3560009
0f
#3565009
1f
#3570009
0f
#3575009
1f
#3580009
0f
#3585009
1f
#3590009
0f
#3595009
1f
#3600009
0f
#3605009
1f
#3610009
0f
#3615009
1f
#3620009
0f
#3625009
1f
#3630009
0f
#3635009
1f
#3640010
0f
#3645010
1f
#3650010
0f
#3655010
1f
#3660010
0f
#3665010
1f
#3670010
0f
#3675010
1f
#3680010
0f
#3685010
1f
#3690010
0f
#3695010
1f
#3700010
0f
#3705010
1f
#3710010
0f
#3715010
1f
#3720010
0f
#3725010
1f
#3730010
0f
#3735010
1f
#3740010
0f
#3745010
1f
#3750010
0f
#3755010
1f
#3760010
0f
#3765010
1f
#3770010
0f
#3775010
1f
#3780010
0f
#3785010
1f
#3790010
0f
#3795010
1f
#3800010
0f
#3805010
1f
#3810010
0f
#3815010
1f
#3820010
0f
#3825010
1f
#3830010
0f
#3835010
1f
#3840010
0f
#3845010
1f
#3850010
0f
#3855010
1f
#3860010
0f
#3865010
1f
#3870010
0f
#3875010
1f
#3880010
0f
#3885010
1f
#3890010
0f
#3895010
1f
#3900010
0f
#3905010
1f
#3910010
0f
#3915010
1f
#3920010
0f
#3925010
1f
#3930010
0f
#3935010
1f
#3940010
0f
#3945010
1f
#3950010
0f
#3955010
1f
#3960010
0f
#3965010
1f
#3970010
0f
#3975010
1f
#3980010
0f
#3985010
1f
#3990010
0f
#3995010
1f
#4000010
0f
#4005010
1f
#4010010
0f
#4015010
1f
#4020010
0f
#4025010
1f
#4030011
0f
#4035011
1f
#4040011
0f
#4045010
1f
#4050011
0f
#4055011
1f
#4060011
0f
#4065011
1f
#4070011
0f
#4075011
1f
#4080011
0f
#4085011
1f
#4090011
0f
#4095011
1f
#4100011
0f
#4105011
1f
#4110011
0f
#4115011
1f
#4120011
0f
#4125011
1f
#4130011
0f
#4135011
1f
#4140011
0f
#4145011
1f
#4150011
0f
#4155011
1f
#4160011
0f
#4165011
1f
#4170011
0f
#4175011
1f
#4180011
0f
#4185011
1f
#4190011
0f
#4195011
1f
#4200011
0f
#4205011
1f
#4210011
0f
#4215011
1f
#4220011
0f
#4225011
1f
#4230011
0f
#4235011
1f
#4240011
0f
#4245011
1f
#4250011
0f
#4255011
1f
#4260011
0f
#4265011
1f
#4270011
0f
#4275011
1f
#4280011
0f
#4285011
1f
#4290011
0f
#4295011
1f
#4300011
0f
#4305011
1f
#4310011
0f
#4315011
1f
#4320011
0f
#4325011
1f
#4330011
0f
#4335011
1f
#4340011
0f
#4345011
1f
#4350011
0f
#4355011
1f
#4360011
0f
#4365011
1f
#4370011
0f
#4375011
1f
#4380011
0f
#4385011
1f
#4390011
0f
#4395011
1f
#4400011
0f
#4405012
1f
#4410011
0f
#4415011
1f
#4420012
0f
#4425011
1f
#4430011
0f
#4435011
1f
#4440011
0f
#4445011
1f
#4450011
0f
#4455012
1f
#4460012
0f
#4465012
1f
#4470012
0f
#4475012
1f
#4480012
0f
#4485012
1f
#4490012
0f
#4495012
1f
#4500012
0f
#4505012
1f
#4510012
0f
#4515012
1f
#4520012
0f
#4525012
1f
#4530012
0f
#4535012
1f
#4540012
0f
#4545012
1f
#4550012
0f
#4555012
1f
#4560012
0f
#4565012
1f
#4570012
0f
#4575012
1f
#4580012
0f
#4585012
1f
#4590012
0f
#4595012
1f
#4600012
0f
#4605012
1f
#4610012
0f
#4615012
1f
#4620012
0f
#4625012
1f
#4630012
0f
#4635012
1f
#4640012
0f
#4645012
1f
#4650012
0f
#4655012
1f
#4660012
0f
#4665012
1f
#4670012
0f
#4675012
1f
#4680012
0f
#4685012
1f
#4690012
0f
#4695012
1f
#4700012
0f
#4705012
1f
#4710012
0f
#4715012
1f
#4720012
0f
#4725012
1f
#4730012
0f
#4735012
1f
#4740012
0f
#4745012
1f
#4750012
0f
#4755012
1f
#4760012
0f
#4765012
1f
#4770012
0f
#4775012
1f
#4780012
0f
#4785012
1f
#4790012
0f
#4795012
1f
#4800012
0f
#4805012
1f
#4810012
0f
#4815012
1f
#4820012
0f
#4825012
1f
#4830013
0f
#4835013
1f
#4840013
0f
#4845013
1f
#4850013
0f
#4855013
1f
#4860013
0f
#4865013
1f